-rw-rw-r-- 1 cacton naif  119741440 Sep  3  2013 de430.bsp
-rw-rw-r-- 1 cacton naif 1436796928 Sep  3  2013 de431_part-1.bsp
-rw-rw-r-- 1 cacton naif 1871023104 Sep  3  2013 de431_part-2.bsp
-rw-rw-r-- 1 cacton naif   10895360 May  1  2014 de432s.bsp
-rw-r--r-- 1 cacton naif  119769088 Jan  7 12:39 de435.bsp
